{
  "name": "Metodología de la Investigación",
  "image": "portada.jpg",
  "temas": [
    {
      "tema": "Introducción",
      "subtemas": [      
        {
          "tema": "UAC II",
          "url": "index.html"
        },
        {
          "tema": "Multidisciplinariedad",
          "url": "multidisciplinariedad.html"
        },
        {
          "tema": "Evaluación diagnóstica",
          "url": "evaluacion_diagnostica.html"
        },
        {
          "tema": "Situación de aprendizaje",
          "url": "situacion_de_aprendizaje.html"
        },
        {
          "tema": "Situación en contexto",
          "url": "situacion_en_contexto.html"
        }
      ]
    },
    {
      "tema": "Contribuir a la construcción del proyecto de vida",
      "subtemas": [
        {
          "tema": "Contribuir a la construcción del proyecto de vida",
          "url": "tema1.0.0.html"
        },
        {
          "tema": "Actividad 1",
          "url": "tema1.0.0A1.html"
        }

      ]
    },
    {
      "tema": "Los resultados de la investigación",
      "subtemas": [
        {
          "tema": "Los resultados de la investigación",
          "url": "tema2.0.0.html"
        },
        {
          "tema": "Actividad 2",
          "url": "tema2.0.0A2.html"
        },
        {
          "tema": "Actividad 3",
          "url": "tema2.0.0A3.html"
        },
        {
          "tema": "Hipótesis",
          "url": "tema2.1.0.html"
        },
        {
          "tema": "Objetivos de la investigación",
          "url": "tema2.2.0.html"
        },
        {
          "tema": "Justificación de la investigación",
          "url": "tema2.3.0.html"
        },
        {
          "tema": "Métodos y técnicas de la investigación",
          "url": "tema2.4.0.html"
        },
        {
          "tema": "Actividad 4",
          "url": "tema2.4.0A4.html"
        },
        {
          "tema": "Actividad 5",
          "url": "tema2.4.0A5.html"
        },
        {
          "tema": "Actividad 6",
          "url": "tema2.4.0A6.html"
        },
        {
          "tema": "Técnicas e instrumentos de campo",
          "url": "tema2.5.0.html"
        },
        {
          "tema": "Actividad 7",
          "url": "tema2.5.0A7.html"
        },
        {
          "tema": "Actividad 8",
          "url": "tema2.5.0A8.html"
        },
        {
          "tema": "Actividad DHS",
          "url": "tema2.5.0A8_dhs.html"
        },
        {
          "tema": "Fomento a la lectura",
          "url": "tema2.5.0A8_lectura.html"
        },
        {
          "tema": "El marco teórico de la investigación",
          "url": "tema2.6.0.html"
        },
        {
          "tema": "Actividad 9",
          "url": "tema2.6.0A9.html"
        }

      ]
    },
    {
      "tema": "Hallazgos en la investigación",
      "subtemas": [
        {
          "tema": "Hallazgos en la investigación",
          "url": "tema3.0.0.html"
        },
        {
          "tema": "Actividad 10",
          "url": "tema3.0.0A10.html"
        },
        {
          "tema": "Actividad 11",
          "url": "tema3.0.0A11.html"
        },
        {
          "tema": "Reporte de investigación",
          "url": "tema3.1.0.html"
        },
        {
          "tema": "Actividad 12",
          "url": "tema3.1.0A12.html"
        },
        {
          "tema": "Actividad 13",
          "url": "tema3.1.0A13.html"
        },
        {
          "tema": "Reportes de investigación en trabajos escolares",
          "url": "tema3.2.0.html"
        },
        {
          "tema": "Actividad multidisciplinar",
          "url": "tema3.2.0_actividad_multidisciplinar.html"
        },
        {
          "tema": "Procesamiento de la información",
          "url": "tema3.3.0.html"
        },
        {
          "tema": "Actividad 14",
          "url": "tema3.3.0A14.html"
        },
        {
          "tema": "Actividad 15",
          "url": "tema3.3.0A15.html"
        },
        {
          "tema": "Evaluación de situación de aprendizaje",
          "url": "tema3.3.0A15_situacion_de_aprendizaje.html"
        },
        {
          "tema": "Oriéntate",
          "url": "tema3.3.0A15_orientate.html"
        },
        {
          "tema": "Evaluación objetiva",
          "url": "tema3.3.0A15_evaluacion_objetiva.html"
        },
        {
          "tema": "Metacognición",
          "url": "tema3.3.0A15_metacognicion.html"
        },
        {
          "tema": "Evaluación de saberes",
          "url": "tema3.3.0A15_evaluacion_de_saberes.html"
        },
        {
          "tema": "Prueba tipo PLANEA",
          "url": "tema3.3.0A15_prueba_planea.html"
        }

      ]
    }
  ]
}